<?xml version="1.0" encoding="UTF-8"?>

<robot name="onshape">

<link name="chassis_1">
<inertial>
<origin xyz="0 0 0" rpy="0 0 0" />
<mass value="1e-9" />
<inertia ixx="0" ixy="0" ixz="0" iyy="0" iyz="0" izz="0" />
</inertial>
</link>



<link name="chassis_1_0_rpi_camera_v2">
<visual>
<geometry>
<mesh filename="package://rpi_camera_v2.stl"/>
</geometry>
<material name="chassis_1_0_rpi_camera_v2_material">
<color rgba="0.8 0.8 0.8 1.0"/>
</material>
</visual>
<collision>
<geometry>
<mesh filename="package://rpi_camera_v2.stl"/>
</geometry>
<material name="chassis_1_0_rpi_camera_v2_material">
<color rgba="0.8 0.8 0.8 1.0"/>
</material>
</collision>
<inertial>
<origin xyz="2.86516e-05 0.00248542 0.00828312" rpy="0 0 0"/>
<mass value="0.00219382"/>
<inertia ixx="2.18866e-07" ixy="6.03253e-10"  ixz="4.07275e-10" iyy="2.10593e-07" iyz="-1.43761e-09" izz="1.0427e-07" />
</inertial>
</link>


<joint name="chassis_1_chassis_1_0_rpi_camera_v2_fixing" type="fixed">
<origin xyz="0.0115677 0.044582 0.00331894" rpy="2.44528 -1.26489e-14 3.14159" />
<parent link="chassis_1" />
<child link="chassis_1_0_rpi_camera_v2" />
<axis xyz="0 0 0"/>
</joint>

<link name="chassis_1_1_antenna">
<visual>
<geometry>
<mesh filename="package://antenna.stl"/>
</geometry>
<material name="chassis_1_1_antenna_material">
<color rgba="0.439216 0.47451 0.501961 1.0"/>
</material>
</visual>
<collision>
<geometry>
<mesh filename="package://antenna.stl"/>
</geometry>
<material name="chassis_1_1_antenna_material">
<color rgba="0.439216 0.47451 0.501961 1.0"/>
</material>
</collision>
<inertial>
<origin xyz="-5.6029e-20 2.77602e-19 0.0861886" rpy="0 0 0"/>
<mass value="0.013133"/>
<inertia ixx="3.5576e-05" ixy="0"  ixz="0" iyy="3.5576e-05" iyz="0" izz="1.43399e-07" />
</inertial>
</link>
<joint name="chassis_1_chassis_1_1_antenna_fixing" type="fixed">
<origin xyz="-0.0214045 0.042888 0.0268971" rpy="-1.5708 1.14308e-14 -1.01448e-13" />
<parent link="chassis_1" />
<child link="chassis_1_1_antenna" />
<axis xyz="0 0 0"/>
</joint>

<link name="chassis_1_2_sg90_-_micro_servo_9g_-_tower_pro.1b">
<visual>
<geometry>
<mesh filename="package://sg90_-_micro_servo_9g_-_tower_pro.1b.stl"/>
</geometry>
<material name="chassis_1_2_sg90_-_micro_servo_9g_-_tower_pro.1b_material">
<color rgba="0 0 1 1.0"/>
</material>
</visual>
<collision>
<geometry>
<mesh filename="package://sg90_-_micro_servo_9g_-_tower_pro.1b.stl"/>
</geometry>
<material name="chassis_1_2_sg90_-_micro_servo_9g_-_tower_pro.1b_material">
<color rgba="0 0 1 1.0"/>
</material>
</collision>
<inertial>
<origin xyz="0.00586347 0.0261186 0.0277832" rpy="0 0 0"/>
<mass value="0.00271729"/>
<inertia ixx="5.56392e-08" ixy="1.04024e-08"  ixz="8.92257e-16" iyy="1.81742e-07" iyz="2.29495e-16" izz="1.71818e-07" />
</inertial>
</link>
<joint name="chassis_1_chassis_1_2_sg90_-_micro_servo_9g_-_tower_pro.1b_fixing" type="fixed">
<origin xyz="0.00840984 -0.0132302 0.129014" rpy="1.18638e-13 1.20839e-14 -9.97123e-14" />
<parent link="chassis_1" />
<child link="chassis_1_2_sg90_-_micro_servo_9g_-_tower_pro.1b" />
<axis xyz="0 0 0"/>
</joint>

<link name="chassis_1_3_wheel">
<visual>
<geometry>
<mesh filename="package://wheel.stl"/>
</geometry>
<material name="chassis_1_3_wheel_material">
<color rgba="0.647059 0.647059 0.647059 1.0"/>
</material>
</visual>
<collision>
<geometry>
<mesh filename="package://wheel.stl"/>
</geometry>
<material name="chassis_1_3_wheel_material">
<color rgba="0.647059 0.647059 0.647059 1.0"/>
</material>
</collision>
<inertial>
<origin xyz="-7.0726e-19 2.0455e-18 0.00651401" rpy="0 0 0"/>
<mass value="0.0504603"/>
<inertia ixx="1.45847e-05" ixy="0"  ixz="0" iyy="1.45847e-05" iyz="0" izz="2.73974e-05" />
</inertial>
</link>
<joint name="chassis_1_chassis_1_3_wheel_fixing" type="fixed">
<origin xyz="0.0591455 0.011188 0.0449442" rpy="3.14159 -1.5708 0" />
<parent link="chassis_1" />
<child link="chassis_1_3_wheel" />
<axis xyz="0 0 0"/>
</joint>

<link name="chassis_1_4_sg90_-_micro_servo_9g_-_tower_pro.1a">
<visual>
<geometry>
<mesh filename="package://sg90_-_micro_servo_9g_-_tower_pro.1a.stl"/>
</geometry>
<material name="chassis_1_4_sg90_-_micro_servo_9g_-_tower_pro.1a_material">
<color rgba="1 1 1 1.0"/>
</material>
</visual>
<collision>
<geometry>
<mesh filename="package://sg90_-_micro_servo_9g_-_tower_pro.1a.stl"/>
</geometry>
<material name="chassis_1_4_sg90_-_micro_servo_9g_-_tower_pro.1a_material">
<color rgba="1 1 1 1.0"/>
</material>
</collision>
<inertial>
<origin xyz="0.00152327 0.0324367 0.0277832" rpy="0 0 0"/>
<mass value="0.000125473"/>
<inertia ixx="7.65405e-10" ixy="0"  ixz="0" iyy="4.04714e-10" iyz="0" izz="7.65405e-10" />
</inertial>
</link>
<joint name="chassis_1_chassis_1_4_sg90_-_micro_servo_9g_-_tower_pro.1a_fixing" type="fixed">
<origin xyz="0.0326793 0.0552807 0.033657" rpy="3.14159 -0.874487 -1.5708" />
<parent link="chassis_1" />
<child link="chassis_1_4_sg90_-_micro_servo_9g_-_tower_pro.1a" />
<axis xyz="0 0 0"/>
</joint>

<link name="chassis_1_5_sg90_-_micro_servo_9g_-_tower_pro.2">
<visual>
<geometry>
<mesh filename="package://sg90_-_micro_servo_9g_-_tower_pro.2.stl"/>
</geometry>
<material name="chassis_1_5_sg90_-_micro_servo_9g_-_tower_pro.2_material">
<color rgba="1 1 1 1.0"/>
</material>
</visual>
<collision>
<geometry>
<mesh filename="package://sg90_-_micro_servo_9g_-_tower_pro.2.stl"/>
</geometry>
<material name="chassis_1_5_sg90_-_micro_servo_9g_-_tower_pro.2_material">
<color rgba="1 1 1 1.0"/>
</material>
</collision>
<inertial>
<origin xyz="-0.0025288 0.0366158 0.0277832" rpy="0 0 0"/>
<mass value="0.000163512"/>
<inertia ixx="6.68261e-10" ixy="3.98812e-10"  ixz="0" iyy="5.13338e-09" iyz="0" izz="4.78119e-09" />
</inertial>
</link>
<joint name="chassis_1_chassis_1_5_sg90_-_micro_servo_9g_-_tower_pro.2_fixing" type="fixed">
<origin xyz="-0.0178752 -0.0143302 0.157761" rpy="5.89706e-12 1.55066 5.90277e-12" />
<parent link="chassis_1" />
<child link="chassis_1_5_sg90_-_micro_servo_9g_-_tower_pro.2" />
<axis xyz="0 0 0"/>
</joint>

<link name="chassis_1_6_miniservogimbal">
<visual>
<geometry>
<mesh filename="package://miniservogimbal.stl"/>
</geometry>
<material name="chassis_1_6_miniservogimbal_material">
<color rgba="1 0 0 1.0"/>
</material>
</visual>
<collision>
<geometry>
<mesh filename="package://miniservogimbal.stl"/>
</geometry>
<material name="chassis_1_6_miniservogimbal_material">
<color rgba="1 0 0 1.0"/>
</material>
</collision>
<inertial>
<origin xyz="0.0223546 0.00922931 0.00597619" rpy="0 0 0"/>
<mass value="0.00971658"/>
<inertia ixx="1.08726e-06" ixy="-1.00815e-07"  ixz="-2.11787e-10" iyy="5.80613e-06" iyz="3.06913e-08" izz="6.31493e-06" />
</inertial>
</link>
<joint name="chassis_1_chassis_1_6_miniservogimbal_fixing" type="fixed">
<origin xyz="-0.0103884 0.024888 0.0347027" rpy="-1.5708 1.29036e-14 -1.00324e-13" />
<parent link="chassis_1" />
<child link="chassis_1_6_miniservogimbal" />
<axis xyz="0 0 0"/>
</joint>

<link name="chassis_1_7_backsupport">
<visual>
<geometry>
<mesh filename="package://backsupport.stl"/>
</geometry>
<material name="chassis_1_7_backsupport_material">
<color rgba="0.615686 0.811765 0.929412 1.0"/>
</material>
</visual>
<collision>
<geometry>
<mesh filename="package://backsupport.stl"/>
</geometry>
<material name="chassis_1_7_backsupport_material">
<color rgba="0.615686 0.811765 0.929412 1.0"/>
</material>
</collision>
<inertial>
<origin xyz="0.000656818 -0.000866172 0.00298832" rpy="0 0 0"/>
<mass value="0.00743453"/>
<inertia ixx="3.71721e-07" ixy="2.89342e-08"  ixz="-3.30146e-08" iyy="2.93606e-06" iyz="4.34532e-08" izz="3.16867e-06" />
</inertial>
</link>
<joint name="chassis_1_chassis_1_7_backsupport_fixing" type="fixed">
<origin xyz="0.0101831 0.0113504 0.143797" rpy="1.18708e-13 1.21114e-14 -9.9865e-14" />
<parent link="chassis_1" />
<child link="chassis_1_7_backsupport" />
<axis xyz="0 0 0"/>
</joint>

<link name="chassis_1_8_sg90_-_micro_servo_9g_-_tower_pro.1m">
<visual>
<geometry>
<mesh filename="package://sg90_-_micro_servo_9g_-_tower_pro.1m.stl"/>
</geometry>
<material name="chassis_1_8_sg90_-_micro_servo_9g_-_tower_pro.1m_material">
<color rgba="0 0 1 1.0"/>
</material>
</visual>
<collision>
<geometry>
<mesh filename="package://sg90_-_micro_servo_9g_-_tower_pro.1m.stl"/>
</geometry>
<material name="chassis_1_8_sg90_-_micro_servo_9g_-_tower_pro.1m_material">
<color rgba="0 0 1 1.0"/>
</material>
</collision>
<inertial>
<origin xyz="0.00667327 0.0168178 0.0277832" rpy="0 0 0"/>
<mass value="0.00296765"/>
<inertia ixx="6.28937e-08" ixy="0"  ixz="0" iyy="1.61316e-07" iyz="0" izz="1.50896e-07" />
</inertial>
</link>
<joint name="chassis_1_chassis_1_8_sg90_-_micro_servo_9g_-_tower_pro.1m_fixing" type="fixed">
<origin xyz="0.00840984 -0.0132302 0.129014" rpy="1.18638e-13 1.20839e-14 -9.97123e-14" />
<parent link="chassis_1" />
<child link="chassis_1_8_sg90_-_micro_servo_9g_-_tower_pro.1m" />
<axis xyz="0 0 0"/>
</joint>

<link name="chassis_1_9_antenna">
<visual>
<geometry>
<mesh filename="package://antenna.stl"/>
</geometry>
<material name="chassis_1_9_antenna_material">
<color rgba="0.439216 0.47451 0.501961 1.0"/>
</material>
</visual>
<collision>
<geometry>
<mesh filename="package://antenna.stl"/>
</geometry>
<material name="chassis_1_9_antenna_material">
<color rgba="0.439216 0.47451 0.501961 1.0"/>
</material>
</collision>
<inertial>
<origin xyz="-5.6029e-20 2.77602e-19 0.0861886" rpy="0 0 0"/>
<mass value="0.013133"/>
<inertia ixx="3.5576e-05" ixy="0"  ixz="0" iyy="3.5576e-05" iyz="0" izz="1.43399e-07" />
</inertial>
</link>
<joint name="chassis_1_chassis_1_9_antenna_fixing" type="fixed">
<origin xyz="0.0420955 0.042888 0.0268971" rpy="-1.5708 1.17083e-14 -1.01386e-13" />
<parent link="chassis_1" />
<child link="chassis_1_9_antenna" />
<axis xyz="0 0 0"/>
</joint>

<link name="chassis_1_10_sg90_-_micro_servo_9g_-_tower_pro.5_8s_1">
<visual>
<geometry>
<mesh filename="package://sg90_-_micro_servo_9g_-_tower_pro.5_8s_1.stl"/>
</geometry>
<material name="chassis_1_10_sg90_-_micro_servo_9g_-_tower_pro.5_8s_1_material">
<color rgba="0.776471 0.756863 0.737255 1.0"/>
</material>
</visual>
<collision>
<geometry>
<mesh filename="package://sg90_-_micro_servo_9g_-_tower_pro.5_8s_1.stl"/>
</geometry>
<material name="chassis_1_10_sg90_-_micro_servo_9g_-_tower_pro.5_8s_1_material">
<color rgba="0.776471 0.756863 0.737255 1.0"/>
</material>
</collision>
<inertial>
<origin xyz="0.0205733 0.0228082 0.0277832" rpy="0 0 0"/>
<mass value="3.85464e-05"/>
<inertia ixx="2.89761e-10" ixy="-2.03403e-15"  ixz="-3.1235e-16" iyy="5.19055e-11" iyz="-1.31113e-15" izz="2.89754e-10" />
</inertial>
</link>
<joint name="chassis_1_chassis_1_10_sg90_-_micro_servo_9g_-_tower_pro.5_8s_1_fixing" type="fixed">
<origin xyz="0.0315793 0.0607712 0.0154825" rpy="1.5708 -1.5708 0" />
<parent link="chassis_1" />
<child link="chassis_1_10_sg90_-_micro_servo_9g_-_tower_pro.5_8s_1" />
<axis xyz="0 0 0"/>
</joint>

<link name="chassis_1_11_sg90_-_micro_servo_9g_-_tower_pro.5_8s">
<visual>
<geometry>
<mesh filename="package://sg90_-_micro_servo_9g_-_tower_pro.5_8s.stl"/>
</geometry>
<material name="chassis_1_11_sg90_-_micro_servo_9g_-_tower_pro.5_8s_material">
<color rgba="0.776471 0.756863 0.737255 1.0"/>
</material>
</visual>
<collision>
<geometry>
<mesh filename="package://sg90_-_micro_servo_9g_-_tower_pro.5_8s.stl"/>
</geometry>
<material name="chassis_1_11_sg90_-_micro_servo_9g_-_tower_pro.5_8s_material">
<color rgba="0.776471 0.756863 0.737255 1.0"/>
</material>
</collision>
<inertial>
<origin xyz="-0.00722675 0.0228082 0.0277832" rpy="0 0 0"/>
<mass value="3.85464e-05"/>
<inertia ixx="2.89761e-10" ixy="2.03403e-15"  ixz="-3.1235e-16" iyy="5.19055e-11" iyz="1.31113e-15" izz="2.89754e-10" />
</inertial>
</link>
<joint name="chassis_1_chassis_1_11_sg90_-_micro_servo_9g_-_tower_pro.5_8s_fixing" type="fixed">
<origin xyz="0.00840984 -0.0132302 0.129014" rpy="1.18638e-13 1.02544e-14 -9.97678e-14" />
<parent link="chassis_1" />
<child link="chassis_1_11_sg90_-_micro_servo_9g_-_tower_pro.5_8s" />
<axis xyz="0 0 0"/>
</joint>

<link name="chassis_1_12_sg90_-_micro_servo_9g_-_tower_pro.2">
<visual>
<geometry>
<mesh filename="package://sg90_-_micro_servo_9g_-_tower_pro.2.stl"/>
</geometry>
<material name="chassis_1_12_sg90_-_micro_servo_9g_-_tower_pro.2_material">
<color rgba="1 1 1 1.0"/>
</material>
</visual>
<collision>
<geometry>
<mesh filename="package://sg90_-_micro_servo_9g_-_tower_pro.2.stl"/>
</geometry>
<material name="chassis_1_12_sg90_-_micro_servo_9g_-_tower_pro.2_material">
<color rgba="1 1 1 1.0"/>
</material>
</collision>
<inertial>
<origin xyz="-0.0025288 0.0366158 0.0277832" rpy="0 0 0"/>
<mass value="0.000163512"/>
<inertia ixx="6.68261e-10" ixy="3.98812e-10"  ixz="0" iyy="5.13338e-09" iyz="0" izz="4.78119e-09" />
</inertial>
</link>
<joint name="chassis_1_chassis_1_12_sg90_-_micro_servo_9g_-_tower_pro.2_fixing" type="fixed">
<origin xyz="0.0326793 0.0552807 0.033657" rpy="3.14159 -0.874487 -1.5708" />
<parent link="chassis_1" />
<child link="chassis_1_12_sg90_-_micro_servo_9g_-_tower_pro.2" />
<axis xyz="0 0 0"/>
</joint>

<link name="chassis_1_13_casterwheel">
<visual>
<geometry>
<mesh filename="package://casterwheel.stl"/>
</geometry>
<material name="chassis_1_13_casterwheel_material">
<color rgba="0.917647 0.917647 0.917647 1.0"/>
</material>
</visual>
<collision>
<geometry>
<mesh filename="package://casterwheel.stl"/>
</geometry>
<material name="chassis_1_13_casterwheel_material">
<color rgba="0.917647 0.917647 0.917647 1.0"/>
</material>
</collision>
<inertial>
<origin xyz="5.78308e-19 4.2441e-19 0.00630488" rpy="0 0 0"/>
<mass value="0.00296243"/>
<inertia ixx="8.40715e-08" ixy="0"  ixz="0" iyy="1.0417e-07" iyz="0" izz="1.04221e-07" />
</inertial>
</link>
<joint name="chassis_1_chassis_1_13_casterwheel_fixing" type="fixed">
<origin xyz="0.0101455 -0.00211203 0.0227571" rpy="1.5708 1.29016e-14 -9.96984e-14" />
<parent link="chassis_1" />
<child link="chassis_1_13_casterwheel" />
<axis xyz="0 0 0"/>
</joint>

<link name="chassis_1_14_tailpart">
<visual>
<geometry>
<mesh filename="package://tailpart.stl"/>
</geometry>
<material name="chassis_1_14_tailpart_material">
<color rgba="1 0 0 1.0"/>
</material>
</visual>
<collision>
<geometry>
<mesh filename="package://tailpart.stl"/>
</geometry>
<material name="chassis_1_14_tailpart_material">
<color rgba="1 0 0 1.0"/>
</material>
</collision>
<inertial>
<origin xyz="1.14616e-18 -0.00336547 0.0259005" rpy="0 0 0"/>
<mass value="0.0106067"/>
<inertia ixx="5.60901e-06" ixy="0"  ixz="0" iyy="5.5523e-06" iyz="5.4932e-07" izz="5.00865e-07" />
</inertial>
</link>
<joint name="chassis_1_chassis_1_14_tailpart_fixing" type="fixed">
<origin xyz="0.00973673 0.00685143 0.174733" rpy="1.18745e-13 -0.00919254 -1.00636e-13" />
<parent link="chassis_1" />
<child link="chassis_1_14_tailpart" />
<axis xyz="0 0 0"/>
</joint>

<link name="chassis_1_15_sg90_-_micro_servo_9g_-_tower_pro.1m">
<visual>
<geometry>
<mesh filename="package://sg90_-_micro_servo_9g_-_tower_pro.1m.stl"/>
</geometry>
<material name="chassis_1_15_sg90_-_micro_servo_9g_-_tower_pro.1m_material">
<color rgba="0 0 1 1.0"/>
</material>
</visual>
<collision>
<geometry>
<mesh filename="package://sg90_-_micro_servo_9g_-_tower_pro.1m.stl"/>
</geometry>
<material name="chassis_1_15_sg90_-_micro_servo_9g_-_tower_pro.1m_material">
<color rgba="0 0 1 1.0"/>
</material>
</collision>
<inertial>
<origin xyz="0.00667327 0.0168178 0.0277832" rpy="0 0 0"/>
<mass value="0.00296765"/>
<inertia ixx="6.28937e-08" ixy="0"  ixz="0" iyy="1.61316e-07" iyz="0" izz="1.50896e-07" />
</inertial>
</link>
<joint name="chassis_1_chassis_1_15_sg90_-_micro_servo_9g_-_tower_pro.1m_fixing" type="fixed">
<origin xyz="0.0315793 0.0607712 0.0154825" rpy="1.5708 -1.5708 0" />
<parent link="chassis_1" />
<child link="chassis_1_15_sg90_-_micro_servo_9g_-_tower_pro.1m" />
<axis xyz="0 0 0"/>
</joint>

<link name="chassis_1_16_sg90_-_micro_servo_9g_-_tower_pro.1f">
<visual>
<geometry>
<mesh filename="package://sg90_-_micro_servo_9g_-_tower_pro.1f.stl"/>
</geometry>
<material name="chassis_1_16_sg90_-_micro_servo_9g_-_tower_pro.1f_material">
<color rgba="0 0 1 1.0"/>
</material>
</visual>
<collision>
<geometry>
<mesh filename="package://sg90_-_micro_servo_9g_-_tower_pro.1f.stl"/>
</geometry>
<material name="chassis_1_16_sg90_-_micro_servo_9g_-_tower_pro.1f_material">
<color rgba="0 0 1 1.0"/>
</material>
</collision>
<inertial>
<origin xyz="0.00671282 0.00897558 0.0277824" rpy="0 0 0"/>
<mass value="0.00153747"/>
<inertia ixx="2.26585e-08" ixy="-1.52559e-10"  ixz="-7.83192e-12" iyy="8.23735e-08" iyz="-3.61513e-12" izz="6.71015e-08" />
</inertial>
</link>
<joint name="chassis_1_chassis_1_16_sg90_-_micro_servo_9g_-_tower_pro.1f_fixing" type="fixed">
<origin xyz="0.0315793 0.0607712 0.0154825" rpy="1.5708 -1.5708 0" />
<parent link="chassis_1" />
<child link="chassis_1_16_sg90_-_micro_servo_9g_-_tower_pro.1f" />
<axis xyz="0 0 0"/>
</joint>

<link name="chassis_1_17_expansionboard">
<visual>
<geometry>
<mesh filename="package://expansionboard.stl"/>
</geometry>
<material name="chassis_1_17_expansionboard_material">
<color rgba="0.482353 0.682353 0.137255 1.0"/>
</material>
</visual>
<collision>
<geometry>
<mesh filename="package://expansionboard.stl"/>
</geometry>
<material name="chassis_1_17_expansionboard_material">
<color rgba="0.482353 0.682353 0.137255 1.0"/>
</material>
</collision>
<inertial>
<origin xyz="-0.00225608 -9.53535e-05 0.00952417" rpy="0 0 0"/>
<mass value="0.84723"/>
<inertia ixx="0.000469343" ixy="1.14558e-06"  ixz="5.78919e-06" iyy="0.000407055" iyz="-3.74765e-07" izz="0.000804983" />
</inertial>
</link>
<joint name="chassis_1_chassis_1_17_expansionboard_fixing" type="fixed">
<origin xyz="0.0101455 0.024888 0.104247" rpy="-1.5708 -1.5708 0" />
<parent link="chassis_1" />
<child link="chassis_1_17_expansionboard" />
<axis xyz="0 0 0"/>
</joint>

<link name="chassis_1_18_wheel">
<visual>
<geometry>
<mesh filename="package://wheel.stl"/>
</geometry>
<material name="chassis_1_18_wheel_material">
<color rgba="0.647059 0.647059 0.647059 1.0"/>
</material>
</visual>
<collision>
<geometry>
<mesh filename="package://wheel.stl"/>
</geometry>
<material name="chassis_1_18_wheel_material">
<color rgba="0.647059 0.647059 0.647059 1.0"/>
</material>
</collision>
<inertial>
<origin xyz="-7.0726e-19 2.0455e-18 0.00651401" rpy="0 0 0"/>
<mass value="0.0504603"/>
<inertia ixx="1.45847e-05" ixy="0"  ixz="0" iyy="1.45847e-05" iyz="0" izz="2.73974e-05" />
</inertial>
</link>
<joint name="chassis_1_chassis_1_18_wheel_fixing" type="fixed">
<origin xyz="-0.0388545 0.011188 0.0449442" rpy="-1.00324e-13 -1.5708 0" />
<parent link="chassis_1" />
<child link="chassis_1_18_wheel" />
<axis xyz="0 0 0"/>
</joint>

<link name="chassis_1_19_frontsupport">
<visual>
<geometry>
<mesh filename="package://frontsupport.stl"/>
</geometry>
<material name="chassis_1_19_frontsupport_material">
<color rgba="0.615686 0.811765 0.929412 1.0"/>
</material>
</visual>
<collision>
<geometry>
<mesh filename="package://frontsupport.stl"/>
</geometry>
<material name="chassis_1_19_frontsupport_material">
<color rgba="0.615686 0.811765 0.929412 1.0"/>
</material>
</collision>
<inertial>
<origin xyz="1.14249e-18 7.81041e-06 0.002" rpy="0 0 0"/>
<mass value="0.00609333"/>
<inertia ixx="2.48504e-07" ixy="0"  ixz="0" iyy="2.25649e-06" iyz="0" izz="2.48874e-06" />
</inertial>
</link>
<joint name="chassis_1_chassis_1_19_frontsupport_fixing" type="fixed">
<origin xyz="0.0101455 0.011488 0.0167971" rpy="-1.18831e-13 -1.28769e-14 3.14159" />
<parent link="chassis_1" />
<child link="chassis_1_19_frontsupport" />
<axis xyz="0 0 0"/>
</joint>

<link name="chassis_1_20_sg90_-_micro_servo_9g_-_tower_pro.6_4s">
<visual>
<geometry>
<mesh filename="package://sg90_-_micro_servo_9g_-_tower_pro.6_4s.stl"/>
</geometry>
<material name="chassis_1_20_sg90_-_micro_servo_9g_-_tower_pro.6_4s_material">
<color rgba="0.776471 0.756863 0.737255 1.0"/>
</material>
</visual>
<collision>
<geometry>
<mesh filename="package://sg90_-_micro_servo_9g_-_tower_pro.6_4s.stl"/>
</geometry>
<material name="chassis_1_20_sg90_-_micro_servo_9g_-_tower_pro.6_4s_material">
<color rgba="0.776471 0.756863 0.737255 1.0"/>
</material>
</collision>
<inertial>
<origin xyz="0.00152337 0.0359559 0.0277833" rpy="0 0 0"/>
<mass value="1.87641e-05"/>
<inertia ixx="5.19347e-11" ixy="-3.99225e-15"  ixz="-1.82802e-15" iyy="1.47339e-11" iyz="-3.19187e-15" izz="5.19242e-11" />
</inertial>
</link>
<joint name="chassis_1_chassis_1_20_sg90_-_micro_servo_9g_-_tower_pro.6_4s_fixing" type="fixed">
<origin xyz="0.0114564 -0.0143302 0.18458" rpy="3.14159 1.75811e-15 3.14159" />
<parent link="chassis_1" />
<child link="chassis_1_20_sg90_-_micro_servo_9g_-_tower_pro.6_4s" />
<axis xyz="0 0 0"/>
</joint>

<link name="chassis_1_21_sg90_-_micro_servo_9g_-_tower_pro.1b">
<visual>
<geometry>
<mesh filename="package://sg90_-_micro_servo_9g_-_tower_pro.1b.stl"/>
</geometry>
<material name="chassis_1_21_sg90_-_micro_servo_9g_-_tower_pro.1b_material">
<color rgba="0 0 1 1.0"/>
</material>
</visual>
<collision>
<geometry>
<mesh filename="package://sg90_-_micro_servo_9g_-_tower_pro.1b.stl"/>
</geometry>
<material name="chassis_1_21_sg90_-_micro_servo_9g_-_tower_pro.1b_material">
<color rgba="0 0 1 1.0"/>
</material>
</collision>
<inertial>
<origin xyz="0.00586347 0.0261186 0.0277832" rpy="0 0 0"/>
<mass value="0.00271729"/>
<inertia ixx="5.56392e-08" ixy="1.04024e-08"  ixz="8.92257e-16" iyy="1.81742e-07" iyz="2.29495e-16" izz="1.71818e-07" />
</inertial>
</link>
<joint name="chassis_1_chassis_1_21_sg90_-_micro_servo_9g_-_tower_pro.1b_fixing" type="fixed">
<origin xyz="0.0315793 0.0607712 0.0154825" rpy="1.5708 -1.5708 0" />
<parent link="chassis_1" />
<child link="chassis_1_21_sg90_-_micro_servo_9g_-_tower_pro.1b" />
<axis xyz="0 0 0"/>
</joint>

<link name="chassis_1_22_sg90_-_micro_servo_9g_-_tower_pro.1a">
<visual>
<geometry>
<mesh filename="package://sg90_-_micro_servo_9g_-_tower_pro.1a.stl"/>
</geometry>
<material name="chassis_1_22_sg90_-_micro_servo_9g_-_tower_pro.1a_material">
<color rgba="1 1 1 1.0"/>
</material>
</visual>
<collision>
<geometry>
<mesh filename="package://sg90_-_micro_servo_9g_-_tower_pro.1a.stl"/>
</geometry>
<material name="chassis_1_22_sg90_-_micro_servo_9g_-_tower_pro.1a_material">
<color rgba="1 1 1 1.0"/>
</material>
</collision>
<inertial>
<origin xyz="0.00152327 0.0324367 0.0277832" rpy="0 0 0"/>
<mass value="0.000125473"/>
<inertia ixx="7.65405e-10" ixy="0"  ixz="0" iyy="4.04714e-10" iyz="0" izz="7.65405e-10" />
</inertial>
</link>
<joint name="chassis_1_chassis_1_22_sg90_-_micro_servo_9g_-_tower_pro.1a_fixing" type="fixed">
<origin xyz="0.0114564 -0.0132302 0.18458" rpy="3.14159 1.34572e-15 3.14159" />
<parent link="chassis_1" />
<child link="chassis_1_22_sg90_-_micro_servo_9g_-_tower_pro.1a" />
<axis xyz="0 0 0"/>
</joint>

<link name="chassis_1_23_sg90_-_micro_servo_9g_-_tower_pro.5_8s">
<visual>
<geometry>
<mesh filename="package://sg90_-_micro_servo_9g_-_tower_pro.5_8s.stl"/>
</geometry>
<material name="chassis_1_23_sg90_-_micro_servo_9g_-_tower_pro.5_8s_material">
<color rgba="0.776471 0.756863 0.737255 1.0"/>
</material>
</visual>
<collision>
<geometry>
<mesh filename="package://sg90_-_micro_servo_9g_-_tower_pro.5_8s.stl"/>
</geometry>
<material name="chassis_1_23_sg90_-_micro_servo_9g_-_tower_pro.5_8s_material">
<color rgba="0.776471 0.756863 0.737255 1.0"/>
</material>
</collision>
<inertial>
<origin xyz="-0.00722675 0.0228082 0.0277832" rpy="0 0 0"/>
<mass value="3.85464e-05"/>
<inertia ixx="2.89761e-10" ixy="2.03403e-15"  ixz="-3.1235e-16" iyy="5.19055e-11" iyz="1.31113e-15" izz="2.89754e-10" />
</inertial>
</link>
<joint name="chassis_1_chassis_1_23_sg90_-_micro_servo_9g_-_tower_pro.5_8s_fixing" type="fixed">
<origin xyz="0.0362098 -0.0132302 0.129014" rpy="1.18708e-13 1.02656e-14 -9.92682e-14" />
<parent link="chassis_1" />
<child link="chassis_1_23_sg90_-_micro_servo_9g_-_tower_pro.5_8s" />
<axis xyz="0 0 0"/>
</joint>

<link name="chassis_1_24_sg90_-_micro_servo_9g_-_tower_pro.1f">
<visual>
<geometry>
<mesh filename="package://sg90_-_micro_servo_9g_-_tower_pro.1f.stl"/>
</geometry>
<material name="chassis_1_24_sg90_-_micro_servo_9g_-_tower_pro.1f_material">
<color rgba="0 0 1 1.0"/>
</material>
</visual>
<collision>
<geometry>
<mesh filename="package://sg90_-_micro_servo_9g_-_tower_pro.1f.stl"/>
</geometry>
<material name="chassis_1_24_sg90_-_micro_servo_9g_-_tower_pro.1f_material">
<color rgba="0 0 1 1.0"/>
</material>
</collision>
<inertial>
<origin xyz="0.00671282 0.00897558 0.0277824" rpy="0 0 0"/>
<mass value="0.00153747"/>
<inertia ixx="2.26585e-08" ixy="-1.52559e-10"  ixz="-7.83192e-12" iyy="8.23735e-08" iyz="-3.61513e-12" izz="6.71015e-08" />
</inertial>
</link>
<joint name="chassis_1_chassis_1_24_sg90_-_micro_servo_9g_-_tower_pro.1f_fixing" type="fixed">
<origin xyz="0.00840984 -0.0132302 0.129014" rpy="1.18638e-13 1.20839e-14 -9.97123e-14" />
<parent link="chassis_1" />
<child link="chassis_1_24_sg90_-_micro_servo_9g_-_tower_pro.1f" />
<axis xyz="0 0 0"/>
</joint>

<link name="chassis_1_25_dummyjetsonnano">
<visual>
<geometry>
<mesh filename="package://dummyjetsonnano.stl"/>
</geometry>
<material name="chassis_1_25_dummyjetsonnano_material">
<color rgba="0.682353 0.333333 0.737255 1.0"/>
</material>
</visual>
<collision>
<geometry>
<mesh filename="package://dummyjetsonnano.stl"/>
</geometry>
<material name="chassis_1_25_dummyjetsonnano_material">
<color rgba="0.682353 0.333333 0.737255 1.0"/>
</material>
</collision>
<inertial>
<origin xyz="-0.00158608 0.00546315 0.0111891" rpy="0 0 0"/>
<mass value="0.840327"/>
<inertia ixx="0.000480907" ixy="-2.51358e-05"  ixz="6.80561e-06" iyy="0.000433725" iyz="-3.59463e-05" izz="0.000809724" />
</inertial>
</link>
<joint name="chassis_1_chassis_1_25_dummyjetsonnano_fixing" type="fixed">
<origin xyz="0.0101455 0.048843 0.0942971" rpy="-1.5708 -1.5708 0" />
<parent link="chassis_1" />
<child link="chassis_1_25_dummyjetsonnano" />
<axis xyz="0 0 0"/>
</joint>

<link name="chassis_1_26_casterwheel">
<visual>
<geometry>
<mesh filename="package://casterwheel.stl"/>
</geometry>
<material name="chassis_1_26_casterwheel_material">
<color rgba="0.917647 0.917647 0.917647 1.0"/>
</material>
</visual>
<collision>
<geometry>
<mesh filename="package://casterwheel.stl"/>
</geometry>
<material name="chassis_1_26_casterwheel_material">
<color rgba="0.917647 0.917647 0.917647 1.0"/>
</material>
</collision>
<inertial>
<origin xyz="5.78308e-19 4.2441e-19 0.00630488" rpy="0 0 0"/>
<mass value="0.00296243"/>
<inertia ixx="8.40715e-08" ixy="0"  ixz="0" iyy="1.0417e-07" iyz="0" izz="1.04221e-07" />
</inertial>
</link>
<joint name="chassis_1_chassis_1_26_casterwheel_fixing" type="fixed">
<origin xyz="0.0101455 -0.00211203 0.127464" rpy="1.5708 1.29038e-14 -1.00338e-13" />
<parent link="chassis_1" />
<child link="chassis_1_26_casterwheel" />
<axis xyz="0 0 0"/>
</joint>

<link name="chassis_1_27_sg90_-_micro_servo_9g_-_tower_pro.5_8s">
<visual>
<geometry>
<mesh filename="package://sg90_-_micro_servo_9g_-_tower_pro.5_8s.stl"/>
</geometry>
<material name="chassis_1_27_sg90_-_micro_servo_9g_-_tower_pro.5_8s_material">
<color rgba="0.776471 0.756863 0.737255 1.0"/>
</material>
</visual>
<collision>
<geometry>
<mesh filename="package://sg90_-_micro_servo_9g_-_tower_pro.5_8s.stl"/>
</geometry>
<material name="chassis_1_27_sg90_-_micro_servo_9g_-_tower_pro.5_8s_material">
<color rgba="0.776471 0.756863 0.737255 1.0"/>
</material>
</collision>
<inertial>
<origin xyz="-0.00722675 0.0228082 0.0277832" rpy="0 0 0"/>
<mass value="3.85464e-05"/>
<inertia ixx="2.89761e-10" ixy="2.03403e-15"  ixz="-3.1235e-16" iyy="5.19055e-11" iyz="1.31113e-15" izz="2.89754e-10" />
</inertial>
</link>
<joint name="chassis_1_chassis_1_27_sg90_-_micro_servo_9g_-_tower_pro.5_8s_fixing" type="fixed">
<origin xyz="0.0315793 0.0607712 0.0154825" rpy="1.5708 -1.5708 0" />
<parent link="chassis_1" />
<child link="chassis_1_27_sg90_-_micro_servo_9g_-_tower_pro.5_8s" />
<axis xyz="0 0 0"/>
</joint>

<link name="chassis_1_28_sg90_-_micro_servo_9g_-_tower_pro.6_4s">
<visual>
<geometry>
<mesh filename="package://sg90_-_micro_servo_9g_-_tower_pro.6_4s.stl"/>
</geometry>
<material name="chassis_1_28_sg90_-_micro_servo_9g_-_tower_pro.6_4s_material">
<color rgba="0.776471 0.756863 0.737255 1.0"/>
</material>
</visual>
<collision>
<geometry>
<mesh filename="package://sg90_-_micro_servo_9g_-_tower_pro.6_4s.stl"/>
</geometry>
<material name="chassis_1_28_sg90_-_micro_servo_9g_-_tower_pro.6_4s_material">
<color rgba="0.776471 0.756863 0.737255 1.0"/>
</material>
</collision>
<inertial>
<origin xyz="0.00152337 0.0359559 0.0277833" rpy="0 0 0"/>
<mass value="1.87641e-05"/>
<inertia ixx="5.19347e-11" ixy="-3.99225e-15"  ixz="-1.82802e-15" iyy="1.47339e-11" iyz="-3.19187e-15" izz="5.19242e-11" />
</inertial>
</link>
<joint name="chassis_1_chassis_1_28_sg90_-_micro_servo_9g_-_tower_pro.6_4s_fixing" type="fixed">
<origin xyz="0.0326793 0.0552807 0.033657" rpy="3.14159 -0.874487 -1.5708" />
<parent link="chassis_1" />
<child link="chassis_1_28_sg90_-_micro_servo_9g_-_tower_pro.6_4s" />
<axis xyz="0 0 0"/>
</joint>

<link name="chassis_1_29_fan">
<visual>
<geometry>
<mesh filename="package://fan.stl"/>
</geometry>
<material name="chassis_1_29_fan_material">
<color rgba="0.647059 0.647059 0.647059 1.0"/>
</material>
</visual>
<collision>
<geometry>
<mesh filename="package://fan.stl"/>
</geometry>
<material name="chassis_1_29_fan_material">
<color rgba="0.647059 0.647059 0.647059 1.0"/>
</material>
</collision>
<inertial>
<origin xyz="0.0293494 0.0196986 0.00893112" rpy="0 0 0"/>
<mass value="0.042991"/>
<inertia ixx="6.66344e-06" ixy="-5.1831e-10"  ixz="2.2296e-10" iyy="1.35743e-05" iyz="2.25201e-10" izz="1.79443e-05" />
</inertial>
</link>
<joint name="chassis_1_chassis_1_29_fan_fixing" type="fixed">
<origin xyz="0.00894554 0.0769942 0.0629471" rpy="-1.5708 -1.5708 0" />
<parent link="chassis_1" />
<child link="chassis_1_29_fan" />
<axis xyz="0 0 0"/>
</joint>

<link name="chassis_1_30_microservomultipurposemount">
<visual>
<geometry>
<mesh filename="package://microservomultipurposemount.stl"/>
</geometry>
<material name="chassis_1_30_microservomultipurposemount_material">
<color rgba="0.372549 0.654902 0.239216 1.0"/>
</material>
</visual>
<collision>
<geometry>
<mesh filename="package://microservomultipurposemount.stl"/>
</geometry>
<material name="chassis_1_30_microservomultipurposemount_material">
<color rgba="0.372549 0.654902 0.239216 1.0"/>
</material>
</collision>
<inertial>
<origin xyz="0.172067 0.0166855 0.0101303" rpy="0 0 0"/>
<mass value="0.00145191"/>
<inertia ixx="2.22743e-07" ixy="-4.58518e-10"  ixz="-7.66911e-10" iyy="2.19895e-07" iyz="-5.60665e-08" izz="1.27826e-07" />
</inertial>
</link>
<joint name="chassis_1_chassis_1_30_microservomultipurposemount_fixing" type="fixed">
<origin xyz="-0.162068 0.0248514 0.151153" rpy="1.5708 -0.00919254 -1.00845e-13" />
<parent link="chassis_1" />
<child link="chassis_1_30_microservomultipurposemount" />
<axis xyz="0 0 0"/>
</joint>

<link name="chassis_1_31_chassisbellylid">
<visual>
<geometry>
<mesh filename="package://chassisbellylid.stl"/>
</geometry>
<material name="chassis_1_31_chassisbellylid_material">
<color rgba="0.615686 0.811765 0.929412 1.0"/>
</material>
</visual>
<collision>
<geometry>
<mesh filename="package://chassisbellylid.stl"/>
</geometry>
<material name="chassis_1_31_chassisbellylid_material">
<color rgba="0.615686 0.811765 0.929412 1.0"/>
</material>
</collision>
<inertial>
<origin xyz="6.40176e-19 0.0015967 0.0011" rpy="0 0 0"/>
<mass value="0.0197949"/>
<inertia ixx="2.97985e-05" ixy="0"  ixz="0" iyy="7.00508e-06" iyz="0" izz="3.67876e-05" />
</inertial>
</link>
<joint name="chassis_1_chassis_1_31_chassisbellylid_fixing" type="fixed">
<origin xyz="0.0101455 -0.00211203 0.0762612" rpy="-1.5708 1.29036e-14 -1.00324e-13" />
<parent link="chassis_1" />
<child link="chassis_1_31_chassisbellylid" />
<axis xyz="0 0 0"/>
</joint>

<link name="chassis_1_32_cover">
<visual>
<geometry>
<mesh filename="package://cover.stl"/>
</geometry>
<material name="chassis_1_32_cover_material">
<color rgba="0.615686 0.811765 0.929412 1.0"/>
</material>
</visual>
<collision>
<geometry>
<mesh filename="package://cover.stl"/>
</geometry>
<material name="chassis_1_32_cover_material">
<color rgba="0.615686 0.811765 0.929412 1.0"/>
</material>
</collision>
<inertial>
<origin xyz="-0.00211198 0.0188909 0.0713517" rpy="0 0 0"/>
<mass value="0.31239"/>
<inertia ixx="0.00115785" ixy="1.93548e-05"  ixz="-1.52768e-05" iyy="0.000770746" iyz="8.42272e-05" izz="0.00138756" />
</inertial>
</link>
<joint name="chassis_1_chassis_1_32_cover_fixing" type="fixed">
<origin xyz="0.0101455 -0.010312 0.087514" rpy="1.5708 -1.29036e-14 3.14159" />
<parent link="chassis_1" />
<child link="chassis_1_32_cover" />
<axis xyz="0 0 0"/>
</joint>

<link name="chassis_1_33_microservomultipurposemount">
<visual>
<geometry>
<mesh filename="package://microservomultipurposemount.stl"/>
</geometry>
<material name="chassis_1_33_microservomultipurposemount_material">
<color rgba="0.372549 0.654902 0.239216 1.0"/>
</material>
</visual>
<collision>
<geometry>
<mesh filename="package://microservomultipurposemount.stl"/>
</geometry>
<material name="chassis_1_33_microservomultipurposemount_material">
<color rgba="0.372549 0.654902 0.239216 1.0"/>
</material>
</collision>
<inertial>
<origin xyz="0.172067 0.0166855 0.0101303" rpy="0 0 0"/>
<mass value="0.00145191"/>
<inertia ixx="2.22743e-07" ixy="-4.58518e-10"  ixz="-7.66911e-10" iyy="2.19895e-07" iyz="-5.60665e-08" izz="1.27826e-07" />
</inertial>
</link>
<joint name="chassis_1_chassis_1_33_microservomultipurposemount_fixing" type="fixed">
<origin xyz="-0.00650229 0.162378 0.130471" rpy="-1.5708 0.696309 -1.5708" />
<parent link="chassis_1" />
<child link="chassis_1_33_microservomultipurposemount" />
<axis xyz="0 0 0"/>
</joint>

<link name="chassis_1_34_chassis">
<visual>
<geometry>
<mesh filename="package://chassis.stl"/>
</geometry>
<material name="chassis_1_34_chassis_material">
<color rgba="0.8 0.8 0.8 1.0"/>
</material>
</visual>
<collision>
<geometry>
<mesh filename="package://chassis.stl"/>
</geometry>
<material name="chassis_1_34_chassis_material">
<color rgba="0.8 0.8 0.8 1.0"/>
</material>
</collision>
<inertial>
<origin xyz="-3.96559e-06 -0.00998893 -0.0129592" rpy="0 0 0"/>
<mass value="0.0814301"/>
<inertia ixx="0.000187438" ixy="3.76721e-08"  ixz="2.8302e-07" iyy="0.00028011" iyz="-8.33044e-06" izz="0.000107631" />
</inertial>
</link>
<joint name="chassis_1_chassis_1_34_chassis_fixing" type="fixed">
<origin xyz="0.0101455 0.023888 0.0757971" rpy="3.14159 -1.29036e-14 3.14159" />
<parent link="chassis_1" />
<child link="chassis_1_34_chassis" />
<axis xyz="0 0 0"/>
</joint>

</robot>
